-------------------------------------------------------------------------------
Test set: cucumberRunner.TestRunner
-------------------------------------------------------------------------------
Tests run: 0, Failures: 0, Errors: 0, Skipped: 0, Time elapsed: 346.988 s - in cucumberRunner.TestRunner
